Getting Started with UtilsCompassSV • UtilsCompassSV
…
Standard format: IFNg+IL2-TNF+ (+ for
positive, - for negative)

COMPASS format: IFNg&!IL2&TNF
(& as separator, ! for negation)

response_prob

Calculate the overall probability of responding to at least one
cytokine combination:

# Calculate response probability
response_prob(c_obj = c_obj)
#> # A tibble: 148 × 2
#>    sampleid     prob
#>    <chr>       <dbl>
#>  1 010673_D0   1    
#>  2 010782_D0   1    
#>  3 010782_D720 1    
#>  4 010978_D0   1    
#>  5 010993_D0   1    
#>  6 020185_D0   1    
#>  7 030442_D0   1    
#>  8 030448_D0   1    
#>  9 030545_D0   1    
#> 10 030697_D0   0.521
#> # ℹ 138 more rows

# Exclude specific cytokine combinations
response_prob(
  c_obj = c_obj,
  exc = c("IFNg&IL2&TNF&!IL17&!IL6&!IL22")
)
#> # A tibble: 148 × 2
#>    sampleid     prob
#>    <chr>       <dbl>
#>  1 010673_D0   1    
#>  2 010782_D0   0.992
#>  3 010782_D720 0.997
#>  4 010978_D0   1    
#>  5 010993_D0   1    
#>  6 020185_D0   0.998
#>  7 030442_D0   1    
#>  8 030448_D0   1    
#>  9 030545_D0   0.911
#> 10 030697_D0   0.521
#> # ℹ 138 more rows
…
